(kicad_sch
	(version 20231120)
	(generator "eeschema")
	(generator_version "8.0")
	(uuid "049a6f2d-a013-427b-a38c-18f8fe81d5d7")
	(paper "A4")
	(lib_symbols)
	(sheet_instances
		(path "/"
			(page "1")
		)
	)
)